%YAML 1.1
%TAG !u! tag:unity3d.com,2011:
--- !u!114 &11400000
MonoBehaviour:
  m_ObjectHideFlags: 0
  m_PrefabParentObject: {fileID: 0}
  m_PrefabInternal: {fileID: 0}
  m_GameObject: {fileID: 0}
  m_Enabled: 1
  m_EditorHideFlags: 0
  m_Script: {fileID: 11500000, guid: bf2edee5c58d82540a51f03df9d42094, type: 3}
  m_Name: LightweightAsset
  m_EditorClassIdentifier: 
  kAssetVersion: 2
  m_MaxPixelLights: 8
  m_SupportsVertexLight: 1
  m_RequireDepthTexture: 1
  m_RequireSoftParticles: 1
  m_SupportsHDR: 1
  m_MSAA: 8
  m_RenderScale: 4
  m_ShadowType: 2
  m_ShadowAtlasResolution: 2048
  m_ShadowNearPlaneOffset: 2
  m_ShadowDistance: 50
  m_ShadowCascades: 2
  m_Cascade2Split: 0.25
  m_Cascade4Split: {x: 0.067, y: 0.2, z: 0.467}
  m_ResourcesAsset: {fileID: 11400000, guid: aac5a08c32552a14c89394b703f1978a, type: 2}
